{
    "antifeatures": {
        "Ads": "Esta aplicación contién anuncios",
        "DisabledAlgorithm": "Esta aplicación tien una robla feble de seguranza",
        "KnownVuln": "Esta aplicación contién una vulnerabilidá conocida de seguranza",
        "NoSourceSince": "El códigu fonte yá nun ta disponible. Nun va haber más anovamientos.",
        "NonFreeAdd": "Esta aplicación da puxu a complementos que nun son llibres",
        "NonFreeAssets": "Esta aplicación contién gráficos y/o música que nun son llibres",
        "NonFreeDep": "Esta aplicación depende d\\'otres aplicaciones que nun son llibres",
        "NonFreeNet": "Esta aplicación da puxu a servicios de rede que nun son llibres",
        "Tracking": "Esta aplicación rastrexa ya informa de la to actividá",
        "UpstreamNonFree": "El códigu fonte principal nun ye llibre dafechu"
    },
    "index": {
        "download_fdroid": "Descargar F-Droid",
        "gpg_signature": "Firma PGP",
        "introduction": "F-Droid ye un catálogu instalable d'aplicaciones FOSS (software llibre y de códigu abiertu) pa la plataforma Android. El cliente facilita restolar, instalar, y facer el siguimientu de los anovamientos nel to preséu.",
        "screenshot": "Pantallazu de la app F-Droid",
        "title": "¿Qué ye F-Droid?"
    },
    "navigation": {
        "about": "Tocante a",
        "browse": "Restolar",
        "contribute": "Contribuir",
        "documentation": "Documentos",
        "forum": "Foru",
        "issues": "Problemes",
        "news": "Noticies"
    },
    "package": {
        "author": "Autor",
        "build_metadata": "Metadatos de creación",
        "changelog": "Historial de cambios",
        "donate": "Donaciones",
        "download": "Descargar [file_extension]",
        "flattr": "Flattr",
        "gpg_signature": "Firma PGP",
        "issue_tracker": "Siguimientu de fallos",
        "liberapay": "Liberapay",
        "license": "Llicencia",
        "minimum_android_version": "Esta versión rique Android [android_version]  o más nuevu.",
        "new_in_version": "Nuevo na versión [latest_version]",
        "packages": "Paquetes",
        "permissions": "Permisos",
        "signed_by_developer": "Ta construyida y firmada por desendolcador orixinal.",
        "signed_by_fdroid": "Ta construyida y firmada por F-Droid, y ta garantizao que correspuende con <a href=\"[source_code_url]\">esti paquete tar de fonte</a>.",
        "source_code": "Códigu fonte",
        "suggest_downloading_via_fdroid": "Anque les descargues d'APK tán disponibles más abaxo pa date la opción, tienes de saber qu'instalando d'esa manera nun recibirás avisos d'anovamientos y ye una manera menos segura de descargar. Recomendamos qu'instales el cliente de F-Droid y uses esi.",
        "technical_info": "Información téunica",
        "version_info": "<b>Versión [package_version]</b> ([package_version_code]) - Añadida'l [package_added_date]",
        "website": "Sitiu web"
    },
    "sidebars": {
        "donate": {
            "bank_transfer_name": "Nome",
            "bitcoin_alt": "Donar per Bitcoin",
            "flattr_alt": "Donar per Flattr",
            "heading": "Donar",
            "liberapay_alt": "Donar per Liberapay",
            "litecoin_alt": "Donar per Litecoin",
            "paypal_alt": "Donar per PayPal",
            "powered_by_donations": "¡F-Droid caltiense coles tos donaciones!",
            "via_bank_transfer": "Tresferencia bancaria"
        },
        "last_updated": {
            "heading": "Últimu anovamientu"
        },
        "latest_packages": {
            "heading": "Últimes apps"
        },
        "news": {
            "heading": "Noticies"
        },
        "search": {
            "heading": "Alcontrar Apps",
            "noscript": "Rique JavaScript p'activase",
            "search": "Guetar"
        }
    }
}
